<svg xmlns="http://www.w3.org/2000/svg" xmlns:xlink="http://www.w3.org/1999/xlink" width="38" height="38" viewBox="0 0 38 38">
  <defs>
    <circle id="instagram-a" cx="19" cy="19" r="19"/>
  </defs>
  <g fill="none" fill-rule="evenodd">
    <use fill="#555" xlink:href="#instagram-a"/>
    <circle cx="19" cy="19" r="18.5" stroke="#FFF"/>
    <path fill="#FFF" d="M18.9999821,10 C16.5557468,10 16.2492215,10.0103604 15.2893115,10.0541599 C14.3313307,10.0978523 13.6771243,10.2500074 13.1046223,10.4725062 C12.5128285,10.7024716 12.0108844,11.0102116 11.510548,11.510548 C11.0101758,12.0109201 10.7024716,12.5128285 10.4724705,13.1046223 C10.2499717,13.6771243 10.0978523,14.3313307 10.0541242,15.2893115 C10.0103247,16.2492572 10,16.555711 10,18.9999821 C10,21.4442532 10.0103247,21.7507428 10.0541242,22.7106885 C10.0978523,23.6686336 10.2499717,24.3228757 10.4724705,24.895342 C10.7024716,25.4871358 11.0101758,25.9890799 11.510548,26.4894163 C12.0108844,26.9897884 12.5128285,27.2974927 13.1046223,27.5275295 C13.6771243,27.7499926 14.3313307,27.9021477 15.2893115,27.9458758 C16.2492215,27.9896396 16.5557468,28 18.9999821,28 C21.4442532,28 21.7507071,27.9896396 22.7106528,27.9458758 C23.6686336,27.9021477 24.3228399,27.7499926 24.895342,27.5275295 C25.4871715,27.2974927 25.9890799,26.9897884 26.4894163,26.4894163 C26.9897884,25.9890799 27.2974927,25.4871715 27.5274938,24.895342 C27.7499926,24.3228757 27.9021477,23.6686336 27.9458401,22.7106885 C27.9896396,21.7507428 28,21.4442532 28,18.9999821 C28,16.5557468 27.9896396,16.2492572 27.9458401,15.2893115 C27.9021477,14.3313307 27.7499926,13.6771243 27.5274938,13.1046223 C27.2974927,12.5128285 26.9897884,12.0109201 26.4894163,11.510548 C25.9890799,11.0102116 25.4871715,10.7024716 24.895342,10.4725062 C24.3228399,10.2500074 23.6686336,10.0978523 22.7106528,10.0541599 C21.7507071,10.0103604 21.4442532,10 18.9999821,10 M18.9999821,11.6216187 C21.4030974,11.6216187 21.6877229,11.6307645 22.6367366,11.6740638 C23.5142277,11.7141122 23.9907709,11.8607299 24.3079067,11.983983 C24.7280035,12.1472488 25.0278481,12.3422746 25.3427688,12.6571954 C25.6576896,12.9721519 25.8527154,13.2719608 26.016017,13.6920576 C26.1392344,14.0091934 26.2858521,14.4857366 26.3259004,15.3632277 C26.3691641,16.3122414 26.3783455,16.5969026 26.3783455,18.9999821 C26.3783455,21.4030974 26.3691641,21.6877586 26.3259004,22.6367366 C26.2858521,23.5142634 26.1392344,23.9908066 26.016017,24.3079424 C25.8527154,24.7280035 25.6576896,25.0278481 25.3427688,25.3427688 C25.0278481,25.6577254 24.7280035,25.8527512 24.3079067,26.016017 C23.9907709,26.1392344 23.5142277,26.2858878 22.6367366,26.3259004 C21.6878658,26.3691998 21.403276,26.3783813 18.9999821,26.3783813 C16.5966882,26.3783813 16.3120985,26.3691998 15.3632277,26.3259004 C14.4857366,26.2858878 14.0091577,26.1392344 13.6920219,26.016017 C13.2719608,25.8527512 12.9721162,25.6577254 12.6571954,25.3427688 C12.3422746,25.0278481 12.1472131,24.7280035 11.9839473,24.3079424 C11.8607299,23.9908066 11.7141122,23.5142634 11.6740638,22.6367723 C11.6307645,21.6877586 11.6216187,21.4030974 11.6216187,18.9999821 C11.6216187,16.5969026 11.6307645,16.3122414 11.6740638,15.3632277 C11.7141122,14.4857366 11.8607299,14.0091934 11.9839473,13.6920576 C12.1472131,13.2719608 12.3422746,12.9721519 12.6571954,12.6572312 C12.9721162,12.3422746 13.2719608,12.1472488 13.6920219,11.983983 C14.0091577,11.8607299 14.4857366,11.7141122 15.363192,11.6740638 C16.3122414,11.6307645 16.5968669,11.6216187 18.9999821,11.6216187 Z M18.9999821,14.3783813 C16.447534,14.3783813 14.3783455,16.447534 14.3783455,18.9999821 C14.3783455,21.552466 16.447534,23.6216187 18.9999821,23.6216187 C21.5524302,23.6216187 23.621583,21.552466 23.621583,18.9999821 C23.621583,16.447534 21.5524302,14.3783813 18.9999821,14.3783813 Z M18.9999821,22 C17.343138,22 15.9999643,20.6568263 15.9999643,18.9999821 C15.9999643,17.343138 17.343138,16 18.9999821,16 C20.6568263,16 22,17.343138 22,18.9999821 C22,20.6568263 20.6568263,22 18.9999821,22 Z M24.8841992,14.1957808 C24.8841992,13.5993069 24.4006895,13.1157972 23.8042156,13.1157972 C23.2077417,13.1157972 22.7241963,13.5993069 22.7241963,14.1957808 C22.7241963,14.7922547 23.2077417,15.2757644 23.8042156,15.2757644 C24.4006895,15.2757644 24.8841992,14.7922547 24.8841992,14.1957808 Z"/>
  </g>
</svg>
