<svg xmlns="http://www.w3.org/2000/svg" width="12" height="16" viewBox="0 0 12 16">
  <g fill="#555" fill-rule="evenodd">
    <path d="M5.24895652,15.3042667 C5.24895652,15.1626 5.1939287,15.0271733 5.09610261,14.9271733 C4.99827652,14.8271733 4.86580435,14.7709227 4.72720696,14.7709227 L1.18720696,14.7709227 L1.18720696,1.22932267 L4.72720696,1.22932267 C5.01458087,1.22932267 5.24894609,0.990781333 5.24894609,0.695989333 C5.24894609,0.401197333 5.01457043,0.162656 4.72720696,0.162656 L0.143728696,0.162656 L0.143728696,15.8375893 L4.72720696,15.8375893 C4.86579391,15.8375893 4.99827652,15.7813387 5.09610261,15.6813387 C5.1939287,15.5813387 5.24895652,15.4459227 5.24895652,15.3042453 L5.24895652,15.3042667 Z"/>
    <path d="M11.7391304,8.33013333 L11.7676643,8.29054933 C11.7768365,8.27492267 11.7860061,8.25929867 11.7941583,8.242632 C11.7941583,8.22909067 11.8094426,8.21554933 11.8145374,8.19992267 C11.8216722,8.18117333 11.827787,8.16138133 11.8328817,8.14158933 L11.8328817,8.10200533 L11.8328817,8.10096267 C11.8359391,8.068672 11.8359391,8.03533867 11.8328817,8.00304533 C11.8359391,7.969712 11.8359391,7.93637867 11.8328817,7.904088 L11.8328817,7.864504 L11.8328817,7.863464 C11.827787,7.843672 11.8216722,7.82492267 11.8145374,7.80513067 C11.8145374,7.79158667 11.8012904,7.778048 11.7941583,7.76242133 C11.7860061,7.74575467 11.7768339,7.73013067 11.7676643,7.714504 L11.7391304,7.67179467 L11.7126365,7.63741867 L8.38968,3.967552 C8.2969487,3.85921867 8.16447652,3.792552 8.02386261,3.78526133 C7.88221826,3.777968 7.74465391,3.82901067 7.64069739,3.926928 C7.53777652,4.02484533 7.47765391,4.162344 7.47459652,4.30714133 C7.47153913,4.45089067 7.52554696,4.59047467 7.62541043,4.69359467 L10.1403496,7.46639467 L4.22095826,7.46639467 C3.93256696,7.46639467 3.69921913,7.704936 3.69921913,7.999728 C3.69921913,8.29452 3.93257478,8.53306133 4.22095826,8.53306133 L10.1403496,8.53306133 L7.62541043,11.3058613 C7.44096783,11.5235707 7.45727217,11.8517013 7.66413391,12.0475147 C7.86997565,12.2433467 8.19197739,12.236056 8.38966435,12.031888 L11.7188817,8.36202133 L11.7391304,8.33013333 Z"/>
  </g>
</svg>
