<svg xmlns="http://www.w3.org/2000/svg" width="22" height="36" viewBox="0 0 22 36">
  <g fill="#87BE1C" fill-rule="evenodd">
    <path stroke="#87BE1C" stroke-width=".5" d="M17.0995,0.281189189 L4.9005,0.281189189 C2.41415,0.281189189 0.4005,2.24231351 0.4005,4.65956757 L0.4005,31.3404324 C0.4005,33.7576865 2.41415,35.7188108 4.9005,35.7188108 L17.0995,35.7188108 C19.58585,35.7188108 21.5995,33.7576865 21.5995,31.3404324 L21.5995,4.65956757 C21.5995,2.24231351 19.58585,0.281189189 17.0995,0.281189189 Z M20.5995,26.4585405 L1.4005,26.4604378 L1.4005,6.02800541 L20.5995,6.02800541 L20.5995,26.4585405 Z M17.0995,34.7288108 L4.9005,34.7307081 C2.9669,34.7307081 1.4005,33.2066432 1.4005,31.3253027 L1.4005,27.4334108 L20.5995308,27.4334108 L20.5995,31.3253027 C20.603405,32.2298757 20.23622,33.1002 19.57995,33.7425568 C18.92368,34.3849135 18.0311,34.7459351 17.0995,34.7459351 L17.0995,34.7288108 Z M20.5995,5.05313514 L1.4005,5.05503243 L1.4005,4.65976216 C1.4005,2.78031892 2.9669,1.25435676 4.9005,1.25435676 L17.0995,1.25435676 C19.0331,1.25435676 20.5995,2.78031892 20.5995,4.65976216 L20.5995,5.05313514 Z"/>
    <path d="M11.9121075,30.5881536 C11.8847625,30.5273428 11.8535125,30.4703315 11.8164025,30.4171245 C11.7812475,30.3639126 11.7402325,30.314505 11.6914025,30.2707991 C11.2949175,29.9097336 10.6777525,29.9097336 10.2812525,30.2707991 C10.2324275,30.3145099 10.1914075,30.3639174 10.1562525,30.4171245 C10.1171925,30.4703364 10.0859425,30.5273428 10.0605475,30.5881536 C10.0390625,30.645165 10.0195325,30.7059758 10.0058575,30.7667866 C9.9980475,30.8313969 9.9980475,30.8941099 10.0058575,30.956818 C10.0058575,31.2171661 10.1132775,31.4661207 10.3007775,31.6485531 C10.3925725,31.7378672 10.4999975,31.8100812 10.6210875,31.8575915 C10.7441325,31.9051018 10.8749925,31.9317028 11.0058525,31.9298055 C11.2714775,31.933605 11.5254025,31.8309904 11.7109525,31.648558 C11.9004075,31.4661255 12.0058725,31.2171807 12.0058725,30.9568228 C12.0136875,30.8941099 12.0136875,30.8314018 12.0058725,30.7667915 C11.9804825,30.7059807 11.9472775,30.6451699 11.9121225,30.5881585 L11.9121075,30.5881536 Z"/>
  </g>
</svg>
