<svg xmlns="http://www.w3.org/2000/svg" width="716" height="167" viewBox="0 0 716 140">
  <g fill="#FFF" transform="translate(74)">
    <path d="M346.4,127 L339.8,127 L339.8,95.3 L343.6,95.3 C350,95.5 353.7,99.2 355,110.3 L357.4,110.3 L357.4,77.6 C357.4,77.7 355.1,77.6 355.1,77.6 C355.1,77.8 354.6,91.7 343.4,91.5 L339.8,91.5 L339.8,61.8 C358.4,61.8 365.2,60.9 368.5,83.7 L370.5,83.7 L370.5,58.4 L296.8,58.4 L296.8,61.9 L298.7,61.9 C301.3,61.9 307.5,62.1 307.8,67.5 L307.8,109.1 L273.3,58.4 L254.5,58.4 L254.5,61.9 L257.6,61.9 C261.3,61.9 266.5,62.1 266.7,67.5 L266.7,120.8 C266.7,126 258.9,128 255.7,128 L255.7,130.6 L281,130.6 L281,128 C277.7,128 269.9,126 269.9,120.8 L270,73.9 C283.7,93.4 309.4,130.6 309.7,130.6 L311,130.6 L311,67.6 C311.4,62.2 317.5,62 320.1,62 L328.6,62 L328.6,127 L318.9,127 L318.9,130.4 L371,130.4 L371,103.8 L368.4,103.8 C365.8,123.9 360.7,127 346.4,127 Z M198.4,92.7 L169.9,92.7 L169.9,95.9 L179.7,95.9 L179.7,119.3 C178,125.2 169.3,127.7 166.7,127.7 C148.5,127.7 149.8,101 149.8,93.9 C149.8,87.4 149.1,60.1 166.7,60.1 C179.1,60.1 185.6,72.4 188.2,83.5 L190.2,83.5 C190.2,78.9 190.3,57.2 190.2,57.3 C190.2,57.1 181.7,63.4 181.7,63.3 C181.9,63.3 177.8,57.5 166.7,57.5 C145.2,57.5 137.3,79 137.4,93.9 C137.5,107.6 143.8,130.9 166.7,130.9 C173.9,130.9 179,127.2 181.7,123.1 C181.7,123 190.8,130.2 190.8,130.3 L190.8,95.8 L198.5,95.8 L198.5,92.7 L198.4,92.7 Z M567.2,61.7 L567.2,58.2 L537.8,58.2 L537.8,61.7 L547,61.7 L547,126.8 L537.7,126.8 L537.7,130.3 L567.1,130.3 L567.1,126.8 L557.9,126.8 L557.9,61.7 L567.2,61.7 Z M509.7,126.9 L508.8,126.9 L508.8,61.7 L517.9,61.7 L517.9,58.2 L487.9,58.2 L487.9,61.7 L497,61.7 L497,126.9 L489.8,126.9 L463.2,56.3 L459.3,56.3 C459.4,56.3 437.2,120.4 437.1,120.6 C437.1,120.4 435.4,126.1 431.8,126.8 C428.4,127 428.7,125.2 428.7,124.6 L428.7,112.2 C428.7,109 428.4,101.6 425.1,98.2 C421.3,94.4 414.9,94.1 415,94 C415,94 431.4,90.6 431.4,75.1 C431.4,64.2 423.8,58.8 411.1,58.3 L375.1,58.3 L375.1,61.8 L384.3,61.8 L384.3,127 C384.3,127 375.3,127 375.1,127 L375.1,130.5 L404.6,130.5 L404.6,127 C404.4,127 395.4,127 395.4,127 L395.4,95.7 C395.4,95.7 407,95.7 407.7,95.7 C429,97.5 404,130.5 431.9,130.5 L449.5,130.5 L449.5,127 C448.5,127 442.1,127.2 441.7,122.7 C441.4,119.5 445.9,107.8 445.9,107.8 L470,107.8 C470,107.8 477.4,127 477.5,127 L469.1,127 L469.1,130.5 L534.3,130.5 L534.3,103.9 L531.7,103.9 C529.2,123.9 524.1,126.9 509.7,126.9 Z M407.3,91.9 L395.6,91.9 L395.6,61.7 L410.6,61.7 C419.4,63 419.7,73.2 419.7,76.4 C419.7,84.3 416.4,91.9 407.3,91.9 Z M447.7,104.4 L458.1,73.2 L469.2,104.4 L447.7,104.4 Z M225.7,127 L219.1,127 L219.1,95.3 L223,95.3 C229.4,95.5 233.1,99.2 234.4,110.3 L236.8,110.3 L236.8,77.6 C236.8,77.7 234.5,77.6 234.5,77.6 C234.5,77.8 234,91.7 222.8,91.5 L219.2,91.5 L219.2,61.9 C237.8,61.9 244.6,61 247.8,83.7 L249.8,83.7 L249.8,58.4 L199.2,58.4 L199.2,61.9 L208,61.9 L208,127 L198.4,127 L198.4,130.4 L250.5,130.4 L250.5,103.8 L247.9,103.8 C245.2,123.9 240,127 225.7,127 Z M105.9,122.8 C109.7,121.2 110.3,120.2 110.1,117.7 L110.1,107.5 C113,114.8 115.7,120 121.3,119.9 C122.1,119.9 122.9,119.8 123.7,119.6 L125.9,119.1 L124.4,117.4 C123.4,116.3 123,115.5 122.4,114.6 C122.2,114.2 121.9,113.8 121.7,113.4 C120.4,111.3 117.3,110.6 114.8,111.7 C113.7,109.4 112.5,106.5 111.1,102.8 L110.8,102.1 C110.6,101.6 110.3,101 110.1,100.5 L110.1,100.4 C109.2,98.5 108.3,96.5 107.2,94.7 C106.2,93.1 105.2,91.6 104.1,90.4 C101.2,87 97.3,84.9 92.6,84.1 C89.4,83.6 87.1,83.5 84.2,83.3 C83.6,83.3 83,83.2 82.3,83.2 C81,83.1 78.3,82.9 75.6,82.7 C73.8,82.6 72,82.4 70.6,82.3 C70.7,81.9 70.8,81.5 70.8,81 C70.8,80.4 70.7,79.9 70.6,79.4 L89.3,79.4 C94.1,79.4 97.6,77.3 99.7,73.1 C104.5,73.1 107.9,70.9 110,66.7 L110.7,66.7 C115.7,66.7 119.2,64.4 121.3,59.9 L122.1,58.1 L58.9,58.1 C54.8,58.1 51.2,60.8 49.9,65 L49.9,65.1 C48.8,62.1 46.9,59.6 44.3,58.1 C40.8,56 36.8,55.3 33.6,56.2 C32.5,56.5 31.5,57 30.7,57.5 C30,58 28.9,58.8 28.2,59.7 C27.4,60.7 26.6,62 26,63.2 C25.6,63.5 25.4,63.8 25.2,64.1 L24.4,65.5 L24.4,65.6 C23.5,67.6 22.4,69.1 21.5,70.1 C20.6,71.1 20.6,72 20.7,72.7 C20.8,73.4 21.2,73.9 21.6,74.3 C21.4,74.7 21.2,75.2 21.2,75.7 C21.2,77.4 22.7,78.6 24.4,78.6 C25.7,78.6 26.8,78 27.9,77.2 C28.4,76.9 29.6,76.1 30,76.1 C30.5,76.1 31,76.6 31,77.1 C31,78.5 29.2,79.2 28,79.3 L25.4,79.6 C23.5,79.8 22.7,80.7 22.7,81.6 C22.7,82.5 23.1,83 23.4,83.3 L23.6,83.5 L24.3,84.1 L21.6,88.5 C19.7,86.7 17.4,85.6 15.4,85.6 C14.1,85.6 13,85.9 12.1,86.7 C11.9,86.9 11.7,87.2 11.5,87.5 C9.3,87.5 7.6,88.6 6.8,89.9 C5.9,91.3 6.2,93.8 7.4,95.6 L0.5,97.4 L0.5,130.2 L126.5,130.2 L126.5,123.7 L103.6,123.7 L105.9,122.8 Z M119.5,114.9 C119.7,115.3 120,115.7 120.2,116 C120.5,116.4 120.7,116.9 121,117.3 C119,117.2 117.5,116.1 116.1,114 C117.4,113.7 119,114 119.5,114.9 Z M92.3,86.8 C96.4,87.5 99.7,89.3 102.2,92.2 C102.7,92.8 103.2,93.5 103.8,94.2 C97,93.3 94.6,92.3 90.8,86.5 C91.2,86.6 91.7,86.7 92.3,86.8 Z M89.3,77 L76.5,77 C77.6,76 78.5,74.8 79.3,73.3 L96.7,73.3 C95,75.8 92.7,77 89.3,77 Z M99.5,70.7 L86.7,70.7 C87.8,69.7 88.8,68.4 89.5,66.9 L107,66.9 C105.3,69.5 102.9,70.7 99.5,70.7 Z M100.4,60.9 L117.8,60.9 C116.2,63.2 113.9,64.3 110.6,64.3 L97.8,64.3 C98.8,63.4 99.7,62.2 100.4,60.9 Z M30.2,61.6 C30.6,61.1 31.3,60.5 32.1,60 C32.7,59.6 33.5,59.2 34.3,59 C35.6,58.6 37,58.6 38.5,58.9 L33.9,61.7 C33.3,61.6 32.8,61.6 32.2,61.6 C31.4,61.6 30.7,61.7 30,61.8 C30.1,61.7 30.1,61.6 30.2,61.6 Z M25.1,81.6 L27.3,81.7 C30,81.6 32.8,80.5 33.1,77.6 C33.1,75.7 31.7,73.8 29.8,73.8 C28.8,73.8 27.6,74.5 26.3,75.4 C25.4,76 24.8,76.4 24.3,76.4 C24,76.4 23.7,76.2 23.7,76 C23.7,76 23.7,75.9 23.7,75.9 L25.1,74 L23.9,73.2 C23.6,73 23.2,72.7 23.2,72.5 C23.2,72.4 23.3,72.2 23.4,72.1 C23.9,71.5 24.5,70.8 25.1,69.9 C25.5,69.4 25.7,69.1 26.3,69.1 C26.9,69.1 27.4,69.6 27.4,70.2 C27.4,70.6 27.8,70.9 28.4,70.9 C28.9,70.9 29.2,70.5 29.5,70.2 C29.5,70.2 30.8,69 30.1,68.5 C29.3,67.9 26.2,69.2 27.1,66.3 L27.3,65.9 C27.6,65.5 29.1,64.4 32.2,64.4 C32.8,64.4 33.4,64.4 34,64.5 L34.5,64.6 L41,60.6 C41.1,60.7 41.1,60.8 41.1,60.8 C41.4,62.8 40.2,65.1 38.2,66.2 L37.4,66.7 L37.9,69.6 C36.2,70.1 35.1,71.4 35.1,73.1 C35.1,73.7 35.2,74.3 35.4,75.1 C35.6,76 35.8,77.1 35.8,78.1 C35.8,81.1 31.6,83.2 28,83.1 L27.9,83.1 C27.7,83.1 25.5,82.9 24.9,82.5 C24.8,82.4 24.7,82.2 24.7,82.1 C24.8,81.7 25,81.6 25.1,81.6 Z M8.7,91.5 C9.2,90.7 10.4,90 11.9,90.3 L13,90.5 L13.4,89.4 C13.5,89.1 13.6,88.9 13.8,88.7 C14.1,88.4 14.6,88.3 15.2,88.3 C16.8,88.4 18.7,89.4 20.3,91.2 C20.9,91.8 21.4,92.5 21.9,93.3 C22,93.5 22.1,93.6 22.2,93.8 C22.3,94 22.4,94.2 22.5,94.2 C22.6,94.3 23.3,95.5 23.3,95.6 C23.8,94.8 24.4,94.1 24.9,93.3 C24.9,93.3 24.9,93.2 24.8,93.1 C24.7,92.8 24.4,92.4 24.2,92.1 C24.2,92 24.1,92 24.1,91.9 C24.1,91.9 24.1,91.9 24.1,91.9 C24.1,91.9 24,91.8 23.9,91.6 C23.7,91.3 23.5,90.9 23.4,90.7 L26.8,85.3 C27.7,85.5 28.4,85.5 28.7,85.5 L28.8,85.5 C33.6,85.5 38.6,82.7 38.6,78.1 L38.6,78 C38.5,76.7 38.3,75.5 38.1,74.6 C38,74 37.9,73.4 37.9,73.1 C37.9,72.6 38.6,72 39.6,72 L41.2,72 L40.5,68 C42.7,66.4 44,63.8 44,61.3 C46.4,63.1 48,66.2 48.3,69.6 C48.4,70.6 48.2,71.9 47.9,73.3 L47.7,73.9 C47.1,76.2 46.3,78.6 45.9,79.7 L45.5,80.7 L46.5,81.2 C48.3,82.2 49.3,82.9 49.3,85.2 C49.3,87.8 46.9,89.9 44.6,90.3 L41.5,90.9 L44.2,92.7 C45,93.3 45.6,94.2 45.6,95.2 C45.6,96.9 44.2,98.2 42.5,98.2 L41.5,98.2 L41.2,99.1 C40.2,102.3 39.2,103.8 35.8,104.2 C36,103.2 36.1,102.3 36.1,101 C36.1,100.7 36.1,99.8 36.1,99.5 L35.9,96.5 L33.8,98.6 C33.1,99.3 31.8,99.9 30.5,100.2 L30.5,97.6 L15.6,93.7 L10.3,95.1 C8.6,93.9 8.4,91.9 8.7,91.5 Z M4.4,123.8 L15.1,121 L25.8,123.8 L4.4,123.8 Z M27.4,121.6 L15.1,118.4 L2.8,121.6 L2.8,99.6 L15.1,96.4 L27.4,99.6 L27.4,121.6 Z M33.1,117.3 C32,118.9 31.9,121.1 32.7,123.9 L30,123.9 L30,102.8 C31,102.7 32,102.4 33,101.9 C32.9,102.8 32.8,103.5 32.6,104.5 C32.6,104.7 32.5,105 32.5,105.2 L32.2,106.7 L33.7,106.7 C36,106.7 37.7,106.3 39.1,105.7 L39.1,114.5 C39.1,114.7 38.9,114.9 38.7,114.9 L38.3,114.9 C36.1,114.9 34.2,115.8 33.1,117.3 Z M60.2,123.8 L44.2,123.8 C45.9,123.6 47.2,123.2 48,122.3 C49,121.2 49.1,119.7 49.1,118.7 C49.1,118.6 49.3,118.2 50.1,117.9 L51.5,117.3 L50.7,116 C49.3,113.9 49.9,109.3 50.5,106.8 L50.6,106.8 C56,106.8 59.5,105.7 63.2,104.5 C64.2,104.2 65.2,103.9 66.2,103.6 C66.2,103.6 67.3,103.2 68.8,102.9 L74,111.5 L74,111.6 C74.5,112.3 74.6,112.8 73.6,113.9 L71,116.7 L66.7,115.9 C64.8,115.6 62.7,116.4 61.4,117.8 C60.5,118.9 59.6,120.8 60.2,123.8 Z M62.9,123.8 C62.4,122 62.6,120.5 63.5,119.5 C64.3,118.6 65.5,118.3 66.4,118.4 L71.4,119.3 L71.5,119.3 L72.2,119.3 L75.7,115.5 C76.3,114.8 78.1,112.7 76.3,110 L71.6,102.3 C72.4,102.2 73.1,102.1 73.9,102.1 C73.9,102.1 76.3,102.1 78.8,103.5 C79.1,104.2 79.6,105.2 80.1,106.3 C81.1,108.3 82.3,110.8 82.7,111.8 C82.8,112.1 83.1,113.1 82,114.3 L73,123.8 L62.9,123.8 Z M93.5,123.8 L76.5,123.8 L83.8,116.1 C85.3,114.6 85.7,112.8 85.1,111 C84.7,110 83.8,108 82.8,106 C85.7,107.3 90.1,108.5 99,109.3 C100.1,109.4 100.4,109.8 100.6,110.7 L101,114.5 L96.3,115.5 C94.7,115.8 93.5,116.8 92.9,118.3 C92.3,120 92.5,122 93.5,123.8 Z M95.3,119.3 C95.6,118.6 96.1,118.2 96.7,118.1 L103.7,116.5 L103.1,110.3 L103.1,110.2 C102.9,109.4 102.4,106.9 99.2,106.6 C86.7,105.6 83.9,103.7 80.8,101.8 C80.8,101.8 80.8,101.8 80.8,101.8 L80.6,101.7 C77.4,99.6 74.2,99.6 73.8,99.6 C70.3,99.6 65.8,101 65.4,101.1 C64.3,101.4 63.3,101.7 62.3,102.1 C58.4,103.4 55,104.4 49.4,104.3 L48.4,104.3 L48.1,105.3 C47.9,106.1 46.3,112.3 47.8,116.3 C46.4,117.4 46.4,118.6 46.4,118.8 C46.5,120.2 46.1,120.5 46,120.6 C45.3,121.3 43.2,121.4 41.3,121.4 L40.6,121.4 L40.2,121.9 C39.1,123.4 36.6,123.8 35.1,123.4 C34.4,121.3 34.4,119.7 35.1,118.8 C35.9,117.7 37.5,117.6 38.2,117.6 L38.6,117.6 C40.3,117.6 41.6,116.2 41.6,114.6 L41.6,103.4 C42.1,102.6 42.5,101.7 42.9,100.7 C45.6,100.3 47.7,97.9 47.7,95.2 C47.7,94.1 47.4,93.1 46.8,92.2 C49.3,91 51.5,88.5 51.5,85.2 C51.5,81.9 49.9,80.5 48.3,79.5 C48.7,78.2 49.5,76.1 50,73.8 L52.2,66 C53.2,62.9 55.7,61 58.7,61 L97.2,61 C95.6,63.3 93.3,64.4 90,64.4 L66.7,64.4 L65.5,67 L86.4,67 C84.8,69.6 82.4,70.8 78.9,70.8 L64,70.8 L62.8,73.4 L76.3,73.4 C74.7,75.9 72.3,77.1 68.9,77.1 L60.6,77.1 L59.4,79.7 L68.1,79.7 C68.2,79.8 68.4,80.2 68.4,81.3 C68.4,83 67,84.3 65.3,84.3 C64.7,84.3 64.2,84.2 63.3,83.8 C62.9,83.6 62.5,83.5 62.2,83.3 L60.2,85.1 C60.6,85.3 60.9,85.4 61.3,85.6 C63,86.4 64,86.7 65.3,86.7 C66.9,86.7 68.3,86 69.3,85 C70.8,85.1 73.2,85.3 75.5,85.5 C78.3,85.7 80.9,85.9 82.2,86 C82.9,86 83.5,86.1 84.1,86.1 C85.2,86.2 86.3,86.2 87.4,86.3 C92.7,94.8 95.3,96 105.5,97.2 C106.2,98.5 106.9,99.9 107.5,101.3 L107.5,117.9 L107.5,118 C107.6,118.8 107.6,119 107.5,119.2 C107.1,119.7 105.6,120.3 105,120.5 L96.4,123.7 C95.3,122.1 94.9,120.5 95.3,119.3 Z M24.7,108.4 L16.5,106.3 L16.5,109 L24.7,111.1 L24.7,108.4 Z M24.7,113.8 L16.5,111.7 L16.5,114.4 L24.7,116.5 L24.7,113.8 Z M24.7,102.9 L16.5,100.8 L16.5,103.5 L24.7,105.6 L24.7,102.9 Z M5.6,105.6 L13.8,103.5 L13.8,100.8 L5.6,102.9 L5.6,105.6 Z M5.6,116.5 L13.8,114.4 L13.8,111.7 L5.6,113.8 L5.6,116.5 Z M5.6,111.1 L13.8,109 L13.8,106.3 L5.6,108.4 L5.6,111.1 Z"/>
    <polygon points=".3 1.1 2.8 1.1 2.8 20.1 .3 20.1"/>
    <path d="M6.7,6.4 L8.8,6.4 L8.8,8.6 L8.9,8.6 C9.9,6.9 11.4,6.1 13.4,6.1 C17,6.1 18.1,8.2 18.1,11.1 L18.1,20.2 L15.8,20.2 L15.8,10.9 C15.8,9.2 14.7,8.1 13,8.1 C10.3,8.1 8.9,9.9 8.9,12.4 L8.9,20.2 L6.6,20.2 L6.6,6.4 L6.7,6.4 Z"/>
    <polygon points="27.8 18 39.6 3.2 28.7 3.2 28.7 1.1 42.6 1.1 42.6 3.2 30.8 18 42.9 18 42.9 20.1 27.8 20.1"/>
    <path d="M56.5 20.2L54.4 20.2 54.4 18 54.3 18C53.3 19.7 51.8 20.5 49.8 20.5 46.2 20.5 45.1 18.4 45.1 15.5L45.1 6.4 47.4 6.4 47.4 15.7C47.4 17.4 48.5 18.5 50.2 18.5 52.9 18.5 54.3 16.7 54.3 14.2L54.3 6.4 56.6 6.4 56.6 20.2 56.5 20.2zM61.3 15.8C61.4 17.8 63.1 18.5 65 18.5 66.4 18.5 68.3 18.2 68.3 16.4 68.3 14.6 66.1 14.3 63.8 13.8 61.6 13.3 59.3 12.5 59.3 9.9 59.3 7.1 62 6 64.4 6 67.4 6 69.9 7 70 10.3L67.7 10.3C67.5 8.5 66 8 64.5 8 63.1 8 61.6 8.4 61.6 9.8 61.6 11.4 64 11.7 66.1 12.2 68.4 12.7 70.6 13.5 70.6 16.1 70.6 19.4 67.5 20.4 64.7 20.4 61.6 20.4 59 19.1 58.9 15.7L61.3 15.7 61.3 15.8zM85.5 20.1C85.1 20.3 84.6 20.5 83.9 20.5 82.7 20.5 82 19.9 82 18.4 80.7 19.9 79.1 20.5 77.2 20.5 74.7 20.5 72.6 19.4 72.6 16.6 72.6 13.5 74.9 12.8 77.3 12.4 79.8 11.9 81.9 12.1 81.9 10.4 81.9 8.4 80.3 8.1 78.8 8.1 76.9 8.1 75.5 8.7 75.4 10.7L73 10.7C73.1 7.3 75.8 6.1 78.8 6.1 81.3 6.1 84 6.7 84 9.9L84 17C84 18.1 84 18.5 84.7 18.5 84.9 18.5 85.1 18.5 85.4 18.4L85.4 20.1 85.5 20.1zM81.8 13C80.9 13.6 79.2 13.7 77.7 13.9 76.2 14.2 74.9 14.7 74.9 16.4 74.9 17.9 76.2 18.4 77.6 18.4 80.6 18.4 81.8 16.5 81.8 15.3L81.8 13zM87.6 6.4L89.7 6.4 89.7 8.4 89.8 8.4C90.8 6.9 92.4 6.1 94.2 6.1 95.9 6.1 97.4 6.8 98 8.4 98.9 6.9 100.6 6.1 102.3 6.1 105 6.1 106.9 7.2 106.9 10.1L106.9 20.2 104.6 20.2 104.6 11.2C104.6 9.5 104.1 8.1 101.9 8.1 99.7 8.1 98.3 9.5 98.3 11.6L98.3 20.2 96 20.2 96 11.2C96 9.4 95.4 8.1 93.4 8.1 90.7 8.1 89.7 10.6 89.7 11.6L89.7 20.2 87.4 20.2 87.4 6.4 87.6 6.4zM110.3 6.4L112.4 6.4 112.4 8.4 112.5 8.4C113.5 6.9 115.1 6.1 116.9 6.1 118.6 6.1 120.1 6.8 120.7 8.4 121.6 6.9 123.3 6.1 125 6.1 127.7 6.1 129.6 7.2 129.6 10.1L129.6 20.2 127.3 20.2 127.3 11.2C127.3 9.5 126.8 8.1 124.6 8.1 122.4 8.1 121 9.5 121 11.6L121 20.2 118.7 20.2 118.7 11.2C118.7 9.4 118.1 8.1 116.1 8.1 113.4 8.1 112.4 10.6 112.4 11.6L112.4 20.2 110.1 20.2 110.1 6.4 110.3 6.4zM144.7 15.8C144.1 18.8 141.9 20.5 138.8 20.5 134.4 20.5 132.3 17.5 132.2 13.3 132.2 9.2 134.9 6.1 138.7 6.1 143.6 6.1 145.1 10.7 144.9 14L134.6 14C134.5 16.4 135.9 18.5 138.9 18.5 140.8 18.5 142.1 17.6 142.5 15.8L144.7 15.8zM142.5 12C142.4 9.8 140.8 8.1 138.5 8.1 136.1 8.1 134.7 9.9 134.6 12L142.5 12zM147.3 6.4L149.4 6.4 149.4 8.6 149.5 8.6C150.5 6.9 152 6.1 154 6.1 157.6 6.1 158.7 8.2 158.7 11.1L158.7 20.2 156.4 20.2 156.4 10.9C156.4 9.2 155.3 8.1 153.6 8.1 150.9 8.1 149.5 9.9 149.5 12.4L149.5 20.2 147.2 20.2 147.2 6.4 147.3 6.4zM174.3 20.1C173.9 20.3 173.4 20.5 172.7 20.5 171.5 20.5 170.8 19.9 170.8 18.4 169.5 19.9 167.9 20.5 166 20.5 163.5 20.5 161.4 19.4 161.4 16.6 161.4 13.5 163.7 12.8 166.1 12.4 168.6 11.9 170.7 12.1 170.7 10.4 170.7 8.4 169.1 8.1 167.6 8.1 165.7 8.1 164.3 8.7 164.2 10.7L161.9 10.7C162 7.3 164.7 6.1 167.7 6.1 170.2 6.1 172.9 6.7 172.9 9.9L172.9 17C172.9 18.1 172.9 18.5 173.6 18.5 173.8 18.5 174 18.5 174.3 18.4L174.3 20.1zM170.6 13C169.7 13.6 168 13.7 166.5 13.9 165 14.2 163.7 14.7 163.7 16.4 163.7 17.9 165 18.4 166.4 18.4 169.4 18.4 170.6 16.5 170.6 15.3L170.6 13zM176.3 6.4L178.4 6.4 178.4 9.3 178.5 9.3C179.6 7.1 181.1 6 183.6 6.1L183.6 8.5C180 8.5 178.6 10.6 178.6 14.1L178.6 20.2 176.3 20.2 176.3 6.4zM185.3 1.1L187.6 1.1 187.6 8.2 187.7 8.2C188.4 6.7 190.2 6 192.1 6 196.3 6 198.4 9.4 198.4 13.2 198.4 17.1 196.3 20.4 192.1 20.4 190.7 20.4 188.7 19.9 187.7 18.2L187.6 18.2 187.6 20 185.3 20 185.3 1.1zM191.7 8.1C188.7 8.1 187.5 10.7 187.5 13.3 187.5 16 188.7 18.5 191.8 18.5 194.9 18.5 195.9 15.9 195.9 13.2 196 10.6 194.6 8.1 191.7 8.1zM212.7 15.8C212.1 18.8 209.9 20.5 206.8 20.5 202.4 20.5 200.3 17.5 200.2 13.3 200.2 9.2 202.9 6.1 206.7 6.1 211.6 6.1 213.1 10.7 212.9 14L202.6 14C202.5 16.4 203.9 18.5 206.9 18.5 208.8 18.5 210.1 17.6 210.5 15.8L212.7 15.8zM210.6 12C210.5 9.8 208.9 8.1 206.6 8.1 204.2 8.1 202.8 9.9 202.7 12L210.6 12zM217.7 3.9L215.4 3.9 215.4 1.1 217.7 1.1 217.7 3.9zM215.4 6.4L217.7 6.4 217.7 20.2 215.4 20.2 215.4 6.4zM224.4 6.4L227.1 6.4 227.1 8.4 224.4 8.4 224.4 16.9C224.4 17.9 224.7 18.1 226.1 18.1L227.1 18.1 227.1 20.1 225.4 20.1C223.1 20.1 222.1 19.6 222.1 17.1L222.1 8.3 219.8 8.3 219.8 6.3 222.1 6.3 222.1 2.2 224.4 2.2 224.4 6.4zM237 6.4L239.1 6.4 239.1 8.4 239.2 8.4C240.2 6.9 241.8 6.1 243.6 6.1 245.3 6.1 246.8 6.8 247.4 8.4 248.3 6.9 250 6.1 251.7 6.1 254.4 6.1 256.3 7.2 256.3 10.1L256.3 20.2 254 20.2 254 11.2C254 9.5 253.5 8.1 251.3 8.1 249.1 8.1 247.7 9.5 247.7 11.6L247.7 20.2 245.4 20.2 245.4 11.2C245.4 9.4 244.8 8.1 242.8 8.1 240.1 8.1 239.1 10.6 239.1 11.6L239.1 20.2 237 20.2 237 6.4zM262.1 3.9L259.8 3.9 259.8 1.1 262.1 1.1 262.1 3.9zM259.8 6.4L262.1 6.4 262.1 20.2 259.8 20.2 259.8 6.4zM268.8 6.4L271.5 6.4 271.5 8.4 268.8 8.4 268.8 16.9C268.8 17.9 269.1 18.1 270.5 18.1L271.5 18.1 271.5 20.1 269.8 20.1C267.5 20.1 266.5 19.6 266.5 17.1L266.5 8.3 264.2 8.3 264.2 6.3 266.5 6.3 266.5 2.2 268.8 2.2 268.8 6.4zM296 17.8C294.5 19.8 292.1 20.6 289.9 20.6 284.2 20.6 280.8 16 280.8 11 280.8 5.5 283.8.7 289.9.7 294.1.7 297.4 2.6 298.1 7L295.6 7C295.1 4.1 292.8 2.8 290 2.8 285.4 2.8 283.5 6.8 283.5 10.9 283.5 14.9 285.8 18.5 290 18.5 293.9 18.5 296.3 15.8 296.1 12.3L290 12.3 290 10.2 298.3 10.2 298.3 20.2 296.7 20.2 296 17.8zM313.3 15.8C312.7 18.8 310.5 20.5 307.4 20.5 303 20.5 300.9 17.5 300.8 13.3 300.8 9.2 303.5 6.1 307.3 6.1 312.2 6.1 313.7 10.7 313.5 14L303.2 14C303.1 16.4 304.5 18.5 307.5 18.5 309.4 18.5 310.7 17.6 311.1 15.8L313.3 15.8zM311.2 12C311.1 9.8 309.5 8.1 307.2 8.1 304.8 8.1 303.4 9.9 303.3 12L311.2 12zM315.9 6.4L318 6.4 318 8.6 318.1 8.6C319.1 6.9 320.6 6.1 322.6 6.1 326.2 6.1 327.3 8.2 327.3 11.1L327.3 20.2 325 20.2 325 10.9C325 9.2 323.9 8.1 322.2 8.1 319.5 8.1 318.1 9.9 318.1 12.4L318.1 20.2 315.8 20.2 315.8 6.4 315.9 6.4zM342.4 15.8C341.8 18.8 339.6 20.5 336.5 20.5 332.1 20.5 330 17.5 329.9 13.3 329.9 9.2 332.6 6.1 336.4 6.1 341.3 6.1 342.8 10.7 342.6 14L332.3 14C332.2 16.4 333.6 18.5 336.6 18.5 338.5 18.5 339.8 17.6 340.2 15.8L342.4 15.8zM340.3 12C340.2 9.8 338.6 8.1 336.3 8.1 333.9 8.1 332.5 9.9 332.4 12L340.3 12zM344.9 6.4L347 6.4 347 9.3 347.1 9.3C348.2 7.1 349.7 6 352.2 6.1L352.2 8.5C348.6 8.5 347.2 10.6 347.2 14.1L347.2 20.2 344.9 20.2 344.9 6.4zM366.1 20.1C365.7 20.3 365.2 20.5 364.5 20.5 363.3 20.5 362.6 19.9 362.6 18.4 361.3 19.9 359.7 20.5 357.8 20.5 355.3 20.5 353.2 19.4 353.2 16.6 353.2 13.5 355.5 12.8 357.9 12.4 360.4 11.9 362.5 12.1 362.5 10.4 362.5 8.4 360.9 8.1 359.4 8.1 357.5 8.1 356.1 8.7 356 10.7L353.7 10.7C353.8 7.3 356.5 6.1 359.5 6.1 362 6.1 364.7 6.7 364.7 9.9L364.7 17C364.7 18.1 364.7 18.5 365.4 18.5 365.6 18.5 365.8 18.5 366.1 18.4L366.1 20.1zM362.4 13C361.5 13.6 359.8 13.7 358.3 13.9 356.8 14.2 355.5 14.7 355.5 16.4 355.5 17.9 356.8 18.4 358.2 18.4 361.2 18.4 362.4 16.5 362.4 15.3L362.4 13z"/>
    <polygon points="368.3 1.1 370.6 1.1 370.6 20.1 368.3 20.1"/>
    <path d="M376.5,3.9 L374.2,3.9 L374.2,1.1 L376.5,1.1 L376.5,3.9 Z M374.2,6.4 L376.5,6.4 L376.5,20.2 L374.2,20.2 L374.2,6.4 Z"/>
    <polygon points="395.2 20.2 392.3 20.2 385.6 1.2 388.3 1.2 393.7 17.7 393.8 17.7 399.3 1.2 401.9 1.2"/>
    <path d="M413.9 15.8C413.3 18.8 411.1 20.5 408 20.5 403.6 20.5 401.5 17.5 401.4 13.3 401.4 9.2 404.1 6.1 407.9 6.1 412.8 6.1 414.3 10.7 414.1 14L403.8 14C403.7 16.4 405.1 18.5 408.1 18.5 410 18.5 411.3 17.6 411.7 15.8L413.9 15.8zM411.7 12C411.6 9.8 410 8.1 407.7 8.1 405.3 8.1 403.9 9.9 403.8 12L411.7 12zM416.4 6.4L418.5 6.4 418.5 9.3 418.6 9.3C419.7 7.1 421.2 6 423.7 6.1L423.7 8.5C420.1 8.5 418.7 10.6 418.7 14.1L418.7 20.2 416.4 20.2 416.4 6.4zM426.7 15.8C426.8 17.8 428.5 18.5 430.4 18.5 431.8 18.5 433.7 18.2 433.7 16.4 433.7 14.6 431.5 14.3 429.2 13.8 427 13.3 424.7 12.5 424.7 9.9 424.7 7.1 427.4 6 429.8 6 432.8 6 435.3 7 435.4 10.3L433.1 10.3C432.9 8.5 431.4 8 429.9 8 428.5 8 427 8.4 427 9.8 427 11.4 429.4 11.7 431.5 12.2 433.8 12.7 436 13.5 436 16.1 436 19.4 432.9 20.4 430.1 20.4 427 20.4 424.4 19.1 424.3 15.7L426.7 15.7 426.7 15.8zM441 3.9L438.7 3.9 438.7 1.1 441 1.1 441 3.9zM438.8 6.4L441.1 6.4 441.1 20.2 438.8 20.2 438.8 6.4zM453.9 10.8C453.6 9.1 452.4 8.1 450.5 8.1 447.2 8.1 446.2 10.7 446.2 13.5 446.2 16 447.3 18.5 450.2 18.5 452.4 18.5 453.7 17.2 454 15.1L456.3 15.1C455.8 18.5 453.7 20.5 450.2 20.5 446 20.5 443.8 17.6 443.8 13.5 443.8 9.4 445.9 6.1 450.3 6.1 453.4 6.1 455.9 7.6 456.2 10.8L453.9 10.8zM458.8 1.1L461.1 1.1 461.1 8.4 461.2 8.4C461.9 6.7 463.9 6.1 465.5 6.1 469.1 6.1 470.2 8.2 470.2 11.1L470.2 20.2 468 20.2 468 10.9C468 9.2 466.9 8.1 465.2 8.1 462.5 8.1 461.1 9.9 461.1 12.4L461.1 20.2 458.8 20.2 458.8 1.1zM485.4 15.8C484.8 18.8 482.6 20.5 479.5 20.5 475.1 20.5 473 17.5 472.9 13.3 472.9 9.2 475.6 6.1 479.4 6.1 484.3 6.1 485.8 10.7 485.6 14L475.3 14C475.2 16.4 476.6 18.5 479.6 18.5 481.5 18.5 482.8 17.6 483.2 15.8L485.4 15.8zM483.2 12C483.1 9.8 481.5 8.1 479.2 8.1 476.8 8.1 475.4 9.9 475.3 12L483.2 12zM487.9 6.4L490 6.4 490 9.3 490.1 9.3C491.2 7.1 492.7 6 495.2 6.1L495.2 8.5C491.6 8.5 490.2 10.6 490.2 14.1L490.2 20.2 487.9 20.2 487.9 6.4zM508.2 20.2L506.1 20.2 506.1 18 506 18C505 19.7 503.5 20.5 501.5 20.5 497.9 20.5 496.8 18.4 496.8 15.5L496.8 6.4 499.1 6.4 499.1 15.7C499.1 17.4 500.2 18.5 501.9 18.5 504.6 18.5 506 16.7 506 14.2L506 6.4 508.3 6.4 508.3 20.2 508.2 20.2zM511.6 6.4L513.7 6.4 513.7 8.6 513.8 8.6C514.8 6.9 516.3 6.1 518.3 6.1 521.9 6.1 523 8.2 523 11.1L523 20.2 520.7 20.2 520.7 10.9C520.7 9.2 519.6 8.1 517.9 8.1 515.2 8.1 513.8 9.9 513.8 12.4L513.8 20.2 511.5 20.2 511.5 6.4 511.6 6.4zM538.3 19C538.3 23.5 536.3 25.8 531.9 25.8 529.3 25.8 526.3 24.8 526.2 21.8L528.5 21.8C528.6 23.5 530.6 24 532.1 24 535.1 24 536.2 21.9 536.2 18.8L536.2 17.9 536.1 17.9C535.4 19.6 533.5 20.4 531.8 20.4 527.7 20.4 525.6 17.2 525.6 13.4 525.6 10.2 527.2 6.1 532 6.1 533.7 6.1 535.3 6.9 536.1 8.4L536.1 6.4 538.2 6.4 538.2 19 538.3 19zM536 13C536 10.6 534.9 8.1 532.1 8.1 529.2 8.1 528 10.5 528 13.1 528 15.6 528.9 18.3 531.9 18.3 534.9 18.3 536 15.6 536 13zM553.4 15.8C552.8 18.8 550.6 20.5 547.5 20.5 543.1 20.5 541 17.5 540.9 13.3 540.9 9.2 543.6 6.1 547.4 6.1 552.3 6.1 553.8 10.7 553.6 14L543.3 14C543.2 16.4 544.6 18.5 547.6 18.5 549.5 18.5 550.8 17.6 551.2 15.8L553.4 15.8zM551.2 12C551.1 9.8 549.5 8.1 547.2 8.1 544.8 8.1 543.4 9.9 543.3 12L551.2 12zM556 6.4L558.1 6.4 558.1 8.6 558.2 8.6C559.2 6.9 560.7 6.1 562.7 6.1 566.3 6.1 567.4 8.2 567.4 11.1L567.4 20.2 565.1 20.2 565.1 10.9C565.1 9.2 564 8.1 562.3 8.1 559.6 8.1 558.2 9.9 558.2 12.4L558.2 20.2 556 20.2 556 6.4z"/>
  </g>
</svg>
