<svg xmlns="http://www.w3.org/2000/svg" width="98" height="60" viewBox="0 0 98 60">
  <path fill="#87BE1C" fill-rule="evenodd" d="M169.783311,91.4704216 C167.685292,91.4704216 165.583394,91.8011549 163.706873,92.4665163 L158.290953,80.1826771 L160.723059,73.540718 L164.47998,73.540718 C165.474584,73.540718 166.24769,72.7664138 166.24769,71.770359 C166.24769,70.7743042 165.474544,70 164.47998,70 L153.430916,70 C152.436312,70 151.663205,70.7743042 151.663205,71.770359 C151.663205,72.7664138 152.436351,73.540718 153.430916,73.540718 L157.079126,73.540718 L155.198727,78.5211912 L125.356608,78.5211912 L126.572711,75.6418801 L126.572711,75.5329272 L126.572711,75.3111368 L126.572711,75.0893464 L126.572711,74.9803935 L126.572711,74.6496602 C126.572711,74.5407074 126.463922,74.4278698 126.463922,74.3189269 C126.463922,74.2099841 126.355132,74.2099741 126.355132,74.0971365 C126.355132,74.0971365 126.355132,73.9881936 126.246342,73.9881936 L126.137552,73.8792408 L126.028762,73.7702979 C125.919972,73.6613451 125.919972,73.6613451 125.807303,73.5485075 L125.698514,73.5485075 C125.589724,73.5485075 125.589724,73.4395547 125.477055,73.4395547 L125.368265,73.4395547 C125.259475,73.4395547 125.259475,73.4395547 125.146806,73.3306018 L124.925348,73.3306018 L124.816558,73.3306018 L113.767495,73.3306018 C112.77289,73.3306018 111.999784,74.104906 111.999784,75.1009608 C111.999784,76.0970156 112.77293,76.8713198 113.767495,76.8713198 L122.276039,76.8713198 L121.059936,79.750631 L115.756704,92.5912871 C113.988993,92.0387634 112.108494,91.7041453 110.119285,91.7041453 C99.6212325,91.7041453 91,100.338294 91,110.852073 C91,121.365852 99.6212335,130 110.119285,130 C120.617337,130 129.23857,121.365852 129.23857,110.852073 C129.23857,103.435849 125.038653,97.1288767 118.962315,93.9184637 L122.276338,85.8407338 L143.271447,111.961324 C143.271447,111.961324 143.271447,112.070276 143.380237,112.070276 L143.489027,112.179229 L143.597817,112.288182 C143.597817,112.288182 143.706607,112.288182 143.706607,112.397135 L143.815397,112.397135 C143.815397,112.397135 143.924187,112.397135 143.924187,112.506088 L144.032976,112.506088 L144.141766,112.506088 L144.250556,112.506088 L144.359346,112.506088 L144.468136,112.506088 L144.576926,112.506088 L144.685716,112.506088 L144.907174,112.506088 L150.874802,112.506088 C151.760617,122.245204 159.935054,129.882959 169.880703,129.882959 C180.378755,129.882959 188.999988,121.24881 188.999988,110.735032 C189.011645,100.100725 180.39437,91.4705611 169.784226,91.4705611 L169.783311,91.4704216 Z M125.912294,110.618349 C125.912294,119.252497 118.841252,126.333734 110.220416,126.333734 C101.599581,126.333734 94.5285364,119.252099 94.5285364,110.618349 C94.5285364,101.984599 101.599581,94.9029638 110.220416,94.9029638 C111.766728,94.9029638 113.20423,95.1247542 114.529044,95.5683251 L108.561416,109.956912 C108.231177,110.844064 108.670205,111.840129 109.44723,112.170932 C109.668689,112.279885 109.890138,112.279885 110.111596,112.279885 C110.775963,112.279885 111.43641,111.836314 111.657908,111.174817 L117.625536,96.7862301 C122.594681,99.548799 125.912582,104.751103 125.912582,110.618996 L125.912294,110.618349 Z M167.129706,108.844105 L154.312236,108.844105 C154.863933,103.754659 157.847757,99.4356925 162.047574,96.9995438 L167.129706,108.844105 Z M144.253799,107.186504 L123.923085,81.9494502 L153.983021,81.9494502 L144.253799,107.186504 Z M147.350301,108.844105 L156.631952,84.7157046 L160.610371,93.7895292 C155.19445,96.7778131 151.32872,102.31082 150.773134,108.839523 L147.350301,108.844105 Z M169.783609,126.334531 C161.717962,126.334531 155.086336,120.24899 154.200144,112.389206 L169.783609,112.389206 C170.335307,112.389206 170.887024,112.058473 171.221112,111.614902 C171.55135,111.171331 171.55135,110.509834 171.329901,109.953416 L165.032065,95.6773875 C166.469567,95.2338166 168.124688,95.0120262 169.674879,95.0120262 C178.513633,94.8991886 185.476164,101.984689 185.476164,110.618837 C185.476164,119.249101 178.513931,126.334222 169.784286,126.334222 L169.783609,126.334531 Z" transform="translate(-91 -70)"/>
</svg>
