<svg xmlns="http://www.w3.org/2000/svg" width="60" height="50" viewBox="0 0 60 50">
  <g fill="#555" fill-rule="evenodd" stroke="#FFF" stroke-width="1.289" transform="translate(1 1)">
    <path d="M50.4606444,0 L17.9162,0 C14.0017156,0 10.8273111,3.19511351 10.8273111,7.13513514 L10.8273111,20.1081081 L7.60508889,20.1081081 C3.69060444,20.1081081 0.516201933,23.3032216 0.516201933,27.2432432 L0.516201933,40.8648649 C0.516201933,44.8048865 3.69060444,48 7.60508889,48 L49.1717556,48 C53.7986733,48 57.5495333,44.2246703 57.5495333,39.5675676 L57.5495333,7.13513514 C57.5495333,3.19511351 54.3751289,0 50.4606444,0 Z M10.8273111,40.8648649 C10.8273111,42.6562378 9.38485111,44.1081081 7.60508889,44.1081081 C5.82532667,44.1081081 4.38286667,42.6562378 4.38286667,40.8648649 L4.38286667,27.2432432 C4.38286667,25.4518703 5.82532667,24 7.60508889,24 L10.8273111,24 L10.8273111,40.8648649 Z M53.6828667,39.5675676 C53.6828667,40.7711351 53.2070862,41.9265081 52.36124,42.7778595 C51.5153938,43.6292108 50.3674578,44.1081081 49.1717556,44.1081081 L13.8555556,44.1081081 C14.3665807,43.1047135 14.6308867,41.9924108 14.6283733,40.8648649 L14.6283733,7.13513514 C14.6283733,5.34376216 16.0708333,3.89189189 17.8505956,3.89189189 L50.4607733,3.89189189 C51.3141467,3.89189189 52.1348467,4.23395027 52.7390133,4.84203243 C53.34318,5.45011459 53.6829956,6.27612973 53.6829956,7.13513514 L53.6828667,39.5675676 Z"/>
    <path d="M20.9444444 21.7297297L31.2555556 21.7297297C32.3228844 21.7297297 33.1888889 20.8580757 33.1888889 19.7837838L33.1888889 10.0540541C33.1888889 8.97976216 32.3228844 8.10810811 31.2555556 8.10810811L20.9444444 8.10810811C19.8771156 8.10810811 19.0111111 8.97976216 19.0111111 10.0540541L19.0111111 19.7837838C19.0111111 20.8580757 19.8771156 21.7297297 20.9444444 21.7297297zM22.8777778 12L29.3222222 12 29.3222222 17.8378378 22.8777778 17.8378378 22.8777778 12zM47.3666667 10.0540541L38.3444444 10.0540541C37.2771156 10.0540541 36.4111111 10.9257081 36.4111111 12 36.4111111 13.0742919 37.2771156 13.9459459 38.3444444 13.9459459L47.3666667 13.9459459C48.4339956 13.9459459 49.3 13.0742919 49.3 12 49.3 10.9257081 48.4339956 10.0540541 47.3666667 10.0540541zM47.3666667 17.8378378L38.3444444 17.8378378C37.2771156 17.8378378 36.4111111 18.7094919 36.4111111 19.7837838 36.4111111 20.8580757 37.2771156 21.7297297 38.3444444 21.7297297L47.3666667 21.7297297C48.4339956 21.7297297 49.3 20.8580757 49.3 19.7837838 49.3 18.7094919 48.4339956 17.8378378 47.3666667 17.8378378zM47.3666667 26.2702703L20.9444444 26.2702703C19.8771156 26.2702703 19.0111111 27.1419243 19.0111111 28.2162162 19.0111111 29.2905081 19.8771156 30.1621622 20.9444444 30.1621622L47.3666667 30.1621622C48.4339956 30.1621622 49.3 29.2905081 49.3 28.2162162 49.3 27.1419243 48.4339956 26.2702703 47.3666667 26.2702703zM47.3666667 34.0540541L20.9444444 34.0540541C19.8771156 34.0540541 19.0111111 34.9257081 19.0111111 36 19.0111111 37.0742919 19.8771156 37.9459459 20.9444444 37.9459459L47.3666667 37.9459459C48.4339956 37.9459459 49.3 37.0742919 49.3 36 49.3 34.9257081 48.4339956 34.0540541 47.3666667 34.0540541z"/>
  </g>
</svg>
